{
  "scriptFile": "__init__.py",
  "bindings": [
    {
      "name": "aifile",
      "type": "blobTrigger",
      "direction": "in",
      "path": "aifiles/{name}",
      "connection": "cnamstraccount_STORAGE"
    },
    {
      "type": "cosmosDB",
      "direction": "out",
      "name": "aiDocument",
      "databaseName": "aiCnamDatabase",
      "collectionName": "CnamCollection",
      "createIfNotExists": "true",
      "connectionStringSetting": "cosmosuser_DOCUMENTDB"
    }
  ]
}
